[
  {"imageName":"1.png","text-en":"Start a new book","text-es":"Empieza un libro"},
  {"imageName":"2.png","text-en":"Take a walk on the beach","text-es":"Da un paseo por la playa"},
  {"imageName":"3.png","text-en":"Call your best friend","text-es":"Llama a tu mejor amigo"},
  {"imageName":"4.png","text-en":"Have a coffee with your mother","text-es":"Tómate un café con tu madre"},
  {"imageName":"5.png","text-en":"Get rid of what you don’t need","text-es":"Deshazte de aquello que no necesites"},
  {"imageName":"6.png","text-en":"Sunbathe 30 minutes","text-es":"Toma el sol 30 minutos"},
  {"imageName":"7.png","text-en":"Take a relaxing bath","text-es":"Date un baño relajante"},
  {"imageName":"8.png","text-en":"Get a beauty treatment","text-es":"Hazte un tratamiento"},
  {"imageName":"9.png","text-en":"Dance like mad","text-es":"Baila como un loco"},
  {"imageName":"10.png","text-en":"Move, run, sweat","text-es":"Muévete, corre, suda"},
  {"imageName":"11.png","text-en":"Do some yoga","text-es":"Practica yoga"},
  {"imageName":"12.png","text-en":"Cook something tasty and healthy","text-es":"Cocina algo sano y rico"},
  {"imageName":"13.png","text-en":"Watch an inspiring video","text-es":"Mira un video inspirador"},
  {"imageName":"14.png","text-en":"Get lost in the forest","text-es":"Piérdete en el bosque"},
  {"imageName":"15.png","text-en":"Help someone selflessly","text-es":"Ayuda a alguien desinteresadamente"},
  {"imageName":"16.png","text-en":"Do something for your community","text-es":"Haz algo por tu comunidad"},
  {"imageName":"17.png","text-en":"Plan a trip","text-es":"Planifica un viaje"},
  {"imageName":"18.png","text-en":"Play music out loud","text-es":"Ponte música a todo volumen"},
  {"imageName":"19.png","text-en":"Enjoy your favorite movie","text-es":"Disfruta de tu película favorita"},
  {"imageName":"20.png","text-en":"Air out your house","text-es":"Ventila tu casa"},
  {"imageName":"21.png","text-en":"Finish what you’ve left to do","text-es":"Acaba aquello que te queda por hacer"},
  {"imageName":"22.png","text-en":"Write your thoughts","text-es":"Escribe tus pensamientos"},
  {"imageName":"23.png","text-en":"Sit on the grass","text-es":"Siéntate en la hierba"},
  {"imageName":"24.png","text-en":"Savor the food with your eyes closed","text-es":"Saborea la comida con los ojos cerrados"},
  {"imageName":"25.png","text-en":"Get a massage","text-es":"Date un masaje"},
  {"imageName":"26.png","text-en":"Smile, just because","text-es":"Sonríe, porque sí"},
  {"imageName":"27.png","text-en":"Learn something new","text-es":"Aprende algo nuevo"},
  {"imageName":"28.png","text-en":"Say I‘m Sorry","text-es":"Pide perdón"},
  {"imageName":"29.png","text-en":"Say I love you”","text-es":"Dí \"te quiero\""},
  {"imageName":"30.png","text-en":"Do something creative","text-es":"Haz algo creativo"},
  {"imageName":"31.png","text-en":"Play","text-es":"Juega"},
  {"imageName":"32.png","text-en":"Organize your budget","text-es":"Organiza tus finanzas"},
  {"imageName":"33.png","text-en":"Take a restful nap","text-es":"Échate una siesta reparadora"},
  {"imageName":"34.png","text-en":"Reread your favorite book","text-es":"Relee tu libro favorito"},
  {"imageName":"35.png","text-en":"Dance in the rain","text-es":"Baila bajo la lluvia"},
  {"imageName":"36.png","text-en":"Say something nice to a stranger","text-es":"Dí algo agradable a un desconocido"},
  {"imageName":"37.png","text-en":"Hug your pet","text-es":"Abraza a tu mascota"},
  {"imageName":"38.png","text-en":"Leave a bad habit","text-es":"Deja un mal hábito"},
  {"imageName":"39.png","text-en":"Smile yourself in the mirror","text-es":"Sonríete a ti mismo en el espejo"},
  {"imageName":"40.png","text-en":"Organize your electronic devices","text-es":"Organiza tus dispositivos electrónicos"},
  {"imageName":"41.png","text-en":"Go somewhere new","text-es":"Ve a un sitio desconocido"},
  {"imageName":"42.png","text-en":"Change the sheets","text-es":"Pon sábanas limpias"},
  {"imageName":"43.png","text-en":"Make a gift","text-es":"Haz un regalo"},
  {"imageName":"44.png","text-en":"Write a letter forgiving someone","text-es":"Escribe una carta perdonando a alguien"},
  {"imageName":"45.png","text-en":"Help an NGO","text-es":"Ayuda a una ONG"},
  {"imageName":"46.png","text-en":"Redecorate your home","text-es":"Redecora tu casa"},
  {"imageName":"47.png","text-en":"Turn off your phone","text-es":"Apaga tu teléfono"},
  {"imageName":"48.png","text-en":"Get up early to see the sunrise","text-es":"Levántate para ver el amanecer"},
  {"imageName":"49.png","text-en":"Go to your favorite place to watch the sunset","text-es":"Ve a tu sitio favorito para ver el atardecer"},
  {"imageName":"50.png","text-en":"Give yourself a treat","text-es":"Date un capricho"}
]
